[
    [
        "big/matroska/Sintel.2010.720p.mkv",
        673935402
    ],
    [
        "defaults/avi/bowlerhatdancer.sleepytom.SGP.mjpeg.avi",
        11469256
    ],
    [
        "defaults/avi/raw_video.avi",
        11523200
    ],
    [
        "defaults/avi/samples.multimedia.cx_testsuite_iv31.avi",
        3820040
    ],
    [
        "defaults/bipbop/gear1/fileSequence0.ts",
        250228
    ],
    [
        "defaults/bipbop/gear1/fileSequence1.ts",
        262824
    ],
    [
        "defaults/bipbop/gear1/fileSequence2.ts",
        263764
    ],
    [
        "defaults/bipbop/gear1/fileSequence3.ts",
        263012
    ],
    [
        "defaults/bipbop/gear1/fileSequence4.ts",
        261696
    ],
    [
        "defaults/bipbop/gear1/fileSequence5.ts",
        259628
    ],
    [
        "defaults/bipbop/gear2/fileSequence0.ts",
        414540
    ],
    [
        "defaults/bipbop/gear2/fileSequence1.ts",
        413600
    ],
    [
        "defaults/bipbop/gear2/fileSequence2.ts",
        414352
    ],
    [
        "defaults/bipbop/gear2/fileSequence3.ts",
        410404
    ],
    [
        "defaults/bipbop/gear2/fileSequence4.ts",
        409652
    ],
    [
        "defaults/bipbop/gear2/fileSequence5.ts",
        411908
    ],
    [
        "defaults/bipbop/gear3/fileSequence0.ts",
        641644
    ],
    [
        "defaults/bipbop/gear3/fileSequence1.ts",
        648976
    ],
    [
        "defaults/bipbop/gear3/fileSequence2.ts",
        647096
    ],
    [
        "defaults/bipbop/gear3/fileSequence3.ts",
        649540
    ],
    [
        "defaults/bipbop/gear3/fileSequence4.ts",
        647660
    ],
    [
        "defaults/bipbop/gear3/fileSequence5.ts",
        644088
    ],
    [
        "defaults/bipbop/gear4/fileSequence0.ts",
        923080
    ],
    [
        "defaults/bipbop/gear4/fileSequence1.ts",
        942444
    ],
    [
        "defaults/bipbop/gear4/fileSequence2.ts",
        947896
    ],
    [
        "defaults/bipbop/gear4/fileSequence3.ts",
        952220
    ],
    [
        "defaults/bipbop/gear4/fileSequence4.ts",
        958048
    ],
    [
        "defaults/bipbop/gear4/fileSequence5.ts",
        957860
    ],
    [
        "defaults/exMPD_BIP_TC1/ElephantsDream_AAC48K_064.mp4",
        5349769
    ],
    [
        "defaults/exMPD_BIP_TC1/ElephantsDream_H264BPL30_0100.mp4",
        7805705
    ],
    [
        "defaults/exMPD_BIP_TC1/ElephantsDream_H264BPL30_0175.mp4",
        14193053
    ],
    [
        "defaults/exMPD_BIP_TC1/ElephantsDream_H264BPL30_0250.mp4",
        20301225
    ],
    [
        "defaults/exMPD_BIP_TC1/ElephantsDream_H264BPL30_0500.mp4",
        40801865
    ],
    [
        "defaults/flac/samples.multimedia.cx_flac_Yesterday.flac",
        11218495
    ],
    [
        "defaults/flv/819290236.flv",
        12181917
    ],
    [
        "defaults/matroska/flac_jpeg.0.mkv",
        1928144
    ],
    [
        "defaults/matroska/flac_jpeg.1.mkv",
        4304094
    ],
    [
        "defaults/matroska/numerated_frames_blue.mkv",
        187684
    ],
    [
        "defaults/matroska/numerated_frames_red.mkv",
        206609
    ],
    [
        "defaults/matroska/opus_jpeg.0.mkv",
        895713
    ],
    [
        "defaults/matroska/opus_jpeg.1.mkv",
        3917885
    ],
    [
        "defaults/matroska/raw_video.mkv",
        11526306
    ],
    [
        "defaults/matroska/red_timed_frames_video_only_1fps.mkv",
        522661
    ],
    [
        "defaults/matroska/test5.mkv",
        31762747
    ],
    [
        "defaults/matroska/timed_frames_audio_video_1fps.mkv",
        965117
    ],
    [
        "defaults/matroska/timed_frames_video_only_1fps.mkv",
        797918
    ],
    [
        "defaults/mp4/fragmented_nonseekable_sink.mp4",
        1894684
    ],
    [
        "defaults/mp4/mp3_h264.0.mp4",
        229091
    ],
    [
        "defaults/mp4/mp3_h264.1.mp4",
        1898080
    ],
    [
        "defaults/mp4/raw_h264.0.mp4",
        1013457
    ],
    [
        "defaults/mp4/raw_h264.1.mp4",
        2732543
    ],
    [
        "defaults/mp4/raw_video.mov",
        15361432
    ],
    [
        "defaults/mp4/rawaudioS32LE_prores.mov",
        7827039
    ],
    [
        "defaults/mpegts/GH1_00094_1920x1280.MTS",
        10420224
    ],
    [
        "defaults/mpegts/tron_en_ge_aac_h264.ts",
        12715192
    ],
    [
        "defaults/mxf/op1a-mpeg2-wave_hd.mxf",
        16405552
    ],
    [
        "defaults/mxf/op1a-pal-mpeg2.mxf",
        6483504
    ],
    [
        "defaults/mxf/op2b-mpeg2-wave_hd.mxf",
        25885804
    ],
    [
        "defaults/mxf/test-mpeg2-mp2.mxf",
        1824756
    ],
    [
        "defaults/mxf/test-mpeg2-mp3.mxf",
        1808993
    ],
    [
        "defaults/mxf/test-uncompressed-rgb.mxf",
        2310924
    ],
    [
        "defaults/mxf/xdcam-pal-d10-imx30.mxf",
        9171456
    ],
    [
        "defaults/mxf/xdcam-pal-d10-imx50.mxf",
        16905728
    ],
    [
        "defaults/mxf/xdcam-pal-dv25.mxf",
        14370304
    ],
    [
        "defaults/ogg/numerated_frames_blue.ogv",
        260016
    ],
    [
        "defaults/ogg/opus.1.ogg",
        173073
    ],
    [
        "defaults/ogg/vorbis_theora.0.ogg",
        146102
    ],
    [
        "defaults/ogg/vorbis_theora.1.ogg",
        895842
    ],
    [
        "defaults/png/png.png",
        73294
    ],
    [
        "defaults/webm/vorbis_vp8.0.webm",
        169985
    ],
    [
        "defaults/webm/vorbis_vp8.1.webm",
        355794
    ],
    [
        "defaults/wmv-asf/samples.multimedia.cx_asf_wmv_elephant.asf",
        143037
    ],
    [
        "defaults/wmv-asf/samples.multimedia.cx_asf_wmv_low_fps_cheaterlow.wmv",
        2574930
    ],
    [
        "extras-ges/The_Sausage_Being_Made/Videos/projects/test-sausage/IMG_4866.JPG",
        1072140
    ],
    [
        "extras-ges/The_Sausage_Being_Made/Videos/projects/test-sausage/MVI_4860-small.webm",
        14196233
    ],
    [
        "extras-ges/The_Sausage_Being_Made/Videos/projects/test-sausage/MVI_4861-small.webm",
        141464
    ],
    [
        "extras-ges/The_Sausage_Being_Made/Videos/projects/test-sausage/MVI_4862-small.webm",
        15591831
    ],
    [
        "extras-ges/The_Sausage_Being_Made/Videos/projects/test-sausage/MVI_4863-small.webm",
        150893
    ],
    [
        "extras-ges/The_Sausage_Being_Made/Videos/projects/test-sausage/MVI_4864-small.webm",
        13109517
    ],
    [
        "extras-ges/The_Sausage_Being_Made/Videos/projects/test-sausage/assembly.png",
        17759
    ],
    [
        "extras-ges/The_Sausage_Being_Made/Videos/projects/test-sausage/concept.png",
        19418
    ],
    [
        "extras-ges/The_Sausage_Being_Made/Videos/projects/test-sausage/recipe.png",
        18487
    ],
    [
        "extras-ges/The_Sausage_Being_Made/Videos/projects/test-sausage/title.png",
        51149
    ],
    [
        "extras-ges/desktop-summit/mp3/05 - Mouth on Fire.mp3",
        7095282
    ],
    [
        "extras-ges/desktop-summit/mp3/05 - Sharkhunt.mp3",
        7995897
    ],
    [
        "extras-ges/desktop-summit/mp4/pitivi jingle.mp4",
        281478
    ],
    [
        "extras-ges/desktop-summit/ogv/TXL vers AMS 1.ogv",
        1676456
    ],
    [
        "extras-ges/desktop-summit/ogv/TXL vers AMS 2.ogv",
        4777881
    ],
    [
        "extras-ges/desktop-summit/ogv/TXL vers AMS 3.ogv",
        2588435
    ],
    [
        "extras-ges/desktop-summit/ogv/TXL vers AMS 4.ogv",
        1774583
    ],
    [
        "extras-ges/desktop-summit/ogv/TXL vers AMS 5.ogv",
        1263037
    ],
    [
        "extras-ges/desktop-summit/ogv/X9 bus 1.ogv",
        4699716
    ],
    [
        "extras-ges/desktop-summit/ogv/X9 bus 2.ogv",
        9616151
    ],
    [
        "extras-ges/desktop-summit/ogv/X9 bus 3.ogv",
        3798577
    ],
    [
        "extras-ges/desktop-summit/ogv/X9 bus 4.ogv",
        7001140
    ],
    [
        "extras-ges/desktop-summit/ogv/X9 bus 5.ogv",
        6657721
    ],
    [
        "extras-ges/desktop-summit/ogv/X9 bus 6.ogv",
        1101283
    ],
    [
        "extras-ges/desktop-summit/ogv/X9 bus 7.ogv",
        10338846
    ],
    [
        "extras-ges/desktop-summit/ogv/ajustement de timezone cam\u00e9ra.ogv",
        6029534
    ],
    [
        "extras-ges/desktop-summit/ogv/ascenseur 1.ogv",
        1192871
    ],
    [
        "extras-ges/desktop-summit/ogv/a\u00e9roport AMS walk 1.ogv",
        7873130
    ],
    [
        "extras-ges/desktop-summit/ogv/a\u00e9roport AMS walk 2.ogv",
        4947350
    ],
    [
        "extras-ges/desktop-summit/ogv/a\u00e9roport TXL tarmac 1.ogv",
        1622621
    ],
    [
        "extras-ges/desktop-summit/ogv/a\u00e9roport TXL tarmac 2.ogv",
        505719
    ],
    [
        "extras-ges/desktop-summit/ogv/a\u00e9roport TXL tarmac 3.ogv",
        396869
    ],
    [
        "extras-ges/desktop-summit/ogv/a\u00e9roport TXL tarmac 4.ogv",
        1254313
    ],
    [
        "extras-ges/desktop-summit/ogv/a\u00e9roport YUL timelapse 1.ogv",
        174288
    ],
    [
        "extras-ges/desktop-summit/ogv/a\u00e9roport YUL timelapse 2.ogv",
        503944
    ],
    [
        "extras-ges/desktop-summit/ogv/a\u00e9roport YUL timelapse 3.ogv",
        3169021
    ],
    [
        "extras-ges/desktop-summit/ogv/a\u00e9roport YUL walk 1.ogv",
        1935960
    ],
    [
        "extras-ges/desktop-summit/ogv/a\u00e9roport YUL walk 2.ogv",
        2566232
    ],
    [
        "extras-ges/desktop-summit/ogv/clair de lune.ogv",
        736673
    ],
    [
        "extras-ges/desktop-summit/ogv/coffee mug.ogv",
        1138034
    ],
    [
        "extras-ges/desktop-summit/ogv/dancefloor 1.ogv",
        5234448
    ],
    [
        "extras-ges/desktop-summit/ogv/dancefloor 10.ogv",
        5160394
    ],
    [
        "extras-ges/desktop-summit/ogv/dancefloor 2.ogv",
        3453418
    ],
    [
        "extras-ges/desktop-summit/ogv/dancefloor 3.ogv",
        8129146
    ],
    [
        "extras-ges/desktop-summit/ogv/dancefloor 4.ogv",
        9773146
    ],
    [
        "extras-ges/desktop-summit/ogv/dancefloor 5.ogv",
        7271862
    ],
    [
        "extras-ges/desktop-summit/ogv/dancefloor 6.ogv",
        7279283
    ],
    [
        "extras-ges/desktop-summit/ogv/dancefloor 7.ogv",
        13994981
    ],
    [
        "extras-ges/desktop-summit/ogv/dancefloor 8.ogv",
        4838589
    ],
    [
        "extras-ges/desktop-summit/ogv/dancefloor 9.ogv",
        8636871
    ],
    [
        "extras-ges/desktop-summit/ogv/derri\u00e8re wonderpots.ogv",
        4211977
    ],
    [
        "extras-ges/desktop-summit/ogv/desktop summit hacking 1.ogv",
        2813565
    ],
    [
        "extras-ges/desktop-summit/ogv/desktop summit hacking 2.ogv",
        5259892
    ],
    [
        "extras-ges/desktop-summit/ogv/desktop summit hacking 3.ogv",
        1752829
    ],
    [
        "extras-ges/desktop-summit/ogv/desktop summit hacking 4.ogv",
        1727822
    ],
    [
        "extras-ges/desktop-summit/ogv/desktop summit hacking 5.ogv",
        2387583
    ],
    [
        "extras-ges/desktop-summit/ogv/desktop summit hacking 6.ogv",
        864678
    ],
    [
        "extras-ges/desktop-summit/ogv/desktop summit hacking 7.ogv",
        4371895
    ],
    [
        "extras-ges/desktop-summit/ogv/desktop summit hacking 8.ogv",
        1224355
    ],
    [
        "extras-ges/desktop-summit/ogv/desktop summit hacking 9.ogv",
        5645354
    ],
    [
        "extras-ges/desktop-summit/ogv/desktop summit talk 1.ogv",
        2247777
    ],
    [
        "extras-ges/desktop-summit/ogv/german flag.ogv",
        1760290
    ],
    [
        "extras-ges/desktop-summit/ogv/hackfest 1.ogv",
        4548749
    ],
    [
        "extras-ges/desktop-summit/ogv/hackfest 10.ogv",
        7368605
    ],
    [
        "extras-ges/desktop-summit/ogv/hackfest 11 avec ploum.ogv",
        5149372
    ],
    [
        "extras-ges/desktop-summit/ogv/hackfest 12.ogv",
        3735329
    ],
    [
        "extras-ges/desktop-summit/ogv/hackfest 13.ogv",
        1773506
    ],
    [
        "extras-ges/desktop-summit/ogv/hackfest 14.ogv",
        1508891
    ],
    [
        "extras-ges/desktop-summit/ogv/hackfest 15.ogv",
        1885967
    ],
    [
        "extras-ges/desktop-summit/ogv/hackfest 16.ogv",
        1951809
    ],
    [
        "extras-ges/desktop-summit/ogv/hackfest 17.ogv",
        1956623
    ],
    [
        "extras-ges/desktop-summit/ogv/hackfest 18.ogv",
        2028060
    ],
    [
        "extras-ges/desktop-summit/ogv/hackfest 19.ogv",
        3125432
    ],
    [
        "extras-ges/desktop-summit/ogv/hackfest 2.ogv",
        3445665
    ],
    [
        "extras-ges/desktop-summit/ogv/hackfest 20.ogv",
        2592009
    ],
    [
        "extras-ges/desktop-summit/ogv/hackfest 21.ogv",
        1370659
    ],
    [
        "extras-ges/desktop-summit/ogv/hackfest 22.ogv",
        1383898
    ],
    [
        "extras-ges/desktop-summit/ogv/hackfest 3.ogv",
        4921979
    ],
    [
        "extras-ges/desktop-summit/ogv/hackfest 4.ogv",
        2581970
    ],
    [
        "extras-ges/desktop-summit/ogv/hackfest 5.ogv",
        1328178
    ],
    [
        "extras-ges/desktop-summit/ogv/hackfest 6.ogv",
        2215603
    ],
    [
        "extras-ges/desktop-summit/ogv/hackfest 7.ogv",
        2300870
    ],
    [
        "extras-ges/desktop-summit/ogv/hackfest 8.ogv",
        617746
    ],
    [
        "extras-ges/desktop-summit/ogv/hackfest 9.ogv",
        1886700
    ],
    [
        "extras-ges/desktop-summit/ogv/hackfest whiteboard 1.ogv",
        772162
    ],
    [
        "extras-ges/desktop-summit/ogv/hackfest whiteboard 10.ogv",
        6388363
    ],
    [
        "extras-ges/desktop-summit/ogv/hackfest whiteboard 11.ogv",
        2202749
    ],
    [
        "extras-ges/desktop-summit/ogv/hackfest whiteboard 12.ogv",
        1585507
    ],
    [
        "extras-ges/desktop-summit/ogv/hackfest whiteboard 13.ogv",
        7502491
    ],
    [
        "extras-ges/desktop-summit/ogv/hackfest whiteboard 14.ogv",
        2015779
    ],
    [
        "extras-ges/desktop-summit/ogv/hackfest whiteboard 15.ogv",
        1370253
    ],
    [
        "extras-ges/desktop-summit/ogv/hackfest whiteboard 16.ogv",
        5959508
    ],
    [
        "extras-ges/desktop-summit/ogv/hackfest whiteboard 2.ogv",
        2551961
    ],
    [
        "extras-ges/desktop-summit/ogv/hackfest whiteboard 3.ogv",
        5094479
    ],
    [
        "extras-ges/desktop-summit/ogv/hackfest whiteboard 4.ogv",
        3350203
    ],
    [
        "extras-ges/desktop-summit/ogv/hackfest whiteboard 5.ogv",
        2089324
    ],
    [
        "extras-ges/desktop-summit/ogv/hackfest whiteboard 6.ogv",
        7478800
    ],
    [
        "extras-ges/desktop-summit/ogv/hackfest whiteboard 7.ogv",
        2774227
    ],
    [
        "extras-ges/desktop-summit/ogv/hackfest whiteboard 8.ogv",
        7818987
    ],
    [
        "extras-ges/desktop-summit/ogv/hackfest whiteboard 9.ogv",
        1730905
    ],
    [
        "extras-ges/desktop-summit/ogv/happy pitivi guy 1.ogv",
        10925719
    ],
    [
        "extras-ges/desktop-summit/ogv/happy pitivi guy 2.ogv",
        4933351
    ],
    [
        "extras-ges/desktop-summit/ogv/happy pitivi guy 3.ogv",
        5732871
    ],
    [
        "extras-ges/desktop-summit/ogv/happy pitivi guy 4.ogv",
        7110960
    ],
    [
        "extras-ges/desktop-summit/ogv/happy pitivi guy 5.ogv",
        16599385
    ],
    [
        "extras-ges/desktop-summit/ogv/happy pitivi guy 6.ogv",
        2096332
    ],
    [
        "extras-ges/desktop-summit/ogv/happy pitivi guy 7.ogv",
        5204247
    ],
    [
        "extras-ges/desktop-summit/ogv/happy pitivi guy 8 et m\u00e9lo.ogv",
        2000919
    ],
    [
        "extras-ges/desktop-summit/ogv/interview jeff 1.ogv",
        7122362
    ],
    [
        "extras-ges/desktop-summit/ogv/interview jeff 2.ogv",
        8048080
    ],
    [
        "extras-ges/desktop-summit/ogv/interview jeff 3.ogv",
        4775751
    ],
    [
        "extras-ges/desktop-summit/ogv/interview lubosz.ogv",
        12047539
    ],
    [
        "extras-ges/desktop-summit/ogv/interview luis 1.ogv",
        5773849
    ],
    [
        "extras-ges/desktop-summit/ogv/interview luis 2.ogv",
        4419028
    ],
    [
        "extras-ges/desktop-summit/ogv/interview luis 3.ogv",
        5010602
    ],
    [
        "extras-ges/desktop-summit/ogv/interview luis avant.ogv",
        11449390
    ],
    [
        "extras-ges/desktop-summit/ogv/interview mathieu fake.ogv",
        1266383
    ],
    [
        "extras-ges/desktop-summit/ogv/interview mathieu.ogv",
        7082136
    ],
    [
        "extras-ges/desktop-summit/ogv/interview thibault.ogv",
        10743420
    ],
    [
        "extras-ges/desktop-summit/ogv/jeffrey qui cogne des clous.ogv",
        951847
    ],
    [
        "extras-ges/desktop-summit/ogv/karaoke.ogv",
        4727492
    ],
    [
        "extras-ges/desktop-summit/ogv/outside 1.ogv",
        10399626
    ],
    [
        "extras-ges/desktop-summit/ogv/outside 2.ogv",
        4300691
    ],
    [
        "extras-ges/desktop-summit/ogv/outside 3.ogv",
        8856153
    ],
    [
        "extras-ges/desktop-summit/ogv/outside 4.ogv",
        8811884
    ],
    [
        "extras-ges/desktop-summit/ogv/recherche de job \u00e0 collabora, post discussion avec leon.ogv",
        5564693
    ],
    [
        "extras-ges/desktop-summit/ogv/sieste au retour.ogv",
        8304097
    ],
    [
        "extras-ges/desktop-summit/ogv/takeoff AMS vers TXL 1.ogv",
        970663
    ],
    [
        "extras-ges/desktop-summit/ogv/takeoff AMS vers TXL 2.ogv",
        11016464
    ],
    [
        "extras-ges/desktop-summit/ogv/takeoff TXL vers AMS 1.ogv",
        9488832
    ],
    [
        "extras-ges/desktop-summit/ogv/testing the transformation feature.ogv",
        6251070
    ],
    [
        "extras-ges/desktop-summit/ogv/the box 1.ogv",
        2545741
    ],
    [
        "extras-ges/desktop-summit/ogv/the box 2.ogv",
        6169880
    ],
    [
        "extras-ges/desktop-summit/ogv/the box 3.ogv",
        2913236
    ],
    [
        "extras-ges/desktop-summit/ogv/the box 4.ogv",
        2080662
    ],
    [
        "extras-ges/desktop-summit/ogv/the box 5.ogv",
        1165979
    ],
    [
        "extras-ges/desktop-summit/ogv/traffic.ogv",
        3350349
    ],
    [
        "extras-ges/desktop-summit/ogv/tram 1.ogv",
        5345313
    ],
    [
        "extras-ges/desktop-summit/ogv/u-bahn 1.ogv",
        1896964
    ],
    [
        "extras-ges/desktop-summit/ogv/u-bahn 2.ogv",
        7088083
    ],
    [
        "extras-ges/desktop-summit/ogv/u-bahn 3.ogv",
        1149525
    ],
    [
        "extras-ges/desktop-summit/ogv/u-bahn 4.ogv",
        2565538
    ],
    [
        "extras-ges/desktop-summit/ogv/u-bahn 5.ogv",
        6237869
    ],
    [
        "extras-ges/desktop-summit/ogv/u-bahn 6.ogv",
        2194047
    ],
    [
        "extras-ges/desktop-summit/ogv/u-bahn 7.ogv",
        5976499
    ],
    [
        "extras-ges/desktop-summit/ogv/walk 1.ogv",
        6482913
    ],
    [
        "extras-ges/desktop-summit/ogv/walk 2.ogv",
        5959768
    ],
    [
        "extras-ges/desktop-summit/ogv/walk 3.ogv",
        1510212
    ],
    [
        "extras-ges/desktop-summit/ogv/walk 4.ogv",
        2904811
    ],
    [
        "extras-ges/desktop-summit/ogv/walk 5.ogv",
        6657382
    ],
    [
        "extras-ges/desktop-summit/ogv/walk 6.ogv",
        3479979
    ],
    [
        "extras-ges/desktop-summit/ogv/walk 7.ogv",
        4020987
    ],
    [
        "extras-ges/desktop-summit/ogv/walk 8.ogv",
        2060428
    ],
    [
        "extras-ges/desktop-summit/ogv/zoo.ogv",
        3138865
    ],
    [
        "extras-ges/pitivi-0.91-motivational-export/Documents/pr\u00e9sentations/GUADEC 2013 - pitivi/build script 2.MOV",
        51500680
    ],
    [
        "extras-ges/pitivi-0.91-motivational-export/Documents/pr\u00e9sentations/GUADEC 2013 - pitivi/dogtail-tests-2013-5x.mov",
        108555276
    ],
    [
        "extras-ges/pitivi-0.91-motivational-export/Musique/animes/Card Captor Sakura OST 3/14 - Saigo No Shinpan.mp3",
        5374340
    ],
    [
        "extras-ges/pitivi-0.91-motivational-export/Vid\u00e9os/montage/2012 - GNOME Asia, Hong Kong et Chine/MVI_0009.MOV",
        25789060
    ],
    [
        "extras-ges/pitivi-0.91-motivational-export/Vid\u00e9os/montage/2012 - GNOME Asia, Hong Kong et Chine/MVI_0117.MOV",
        31414924
    ],
    [
        "extras-ges/pitivi-0.91-motivational-export/Vid\u00e9os/montage/2012 - GNOME Asia, Hong Kong et Chine/MVI_0218.MOV",
        132779660
    ],
    [
        "extras-ges/pitivi-0.91-motivational-export/Vid\u00e9os/montage/2012 a Coru\u00f1a/MVI_0001.MOV",
        31058588
    ],
    [
        "extras-ges/pitivi-0.91-motivational-export/Vid\u00e9os/montage/2012 a Coru\u00f1a/MVI_0009.MOV",
        19478288
    ],
    [
        "extras-ges/pitivi-0.91-motivational-export/Vid\u00e9os/montage/2012 a Coru\u00f1a/MVI_0048.MOV",
        28924504
    ],
    [
        "extras-ges/pitivi-0.91-motivational-export/Vid\u00e9os/montage/2013 GStreamer hackfest/duck 2.mov",
        23706932
    ],
    [
        "extras-ges/pitivi-0.91-motivational-export/Vid\u00e9os/montage/2013 GStreamer hackfest/hacking 4 - Thibault and Mathieu.mov",
        56439256
    ],
    [
        "extras-ges/pitivi-0.91-motivational-export/Vid\u00e9os/montage/Pitivi 0.91 motivational/0.91 marketing video narration v3 - amplified and corrected.flac",
        1510248
    ],
    [
        "extras-ges/pitivi-0.91-motivational-export/Vid\u00e9os/montage/Pitivi 0.91 motivational/timelapse square victoria 1.MOV",
        29721804
    ],
    [
        "extras-ges/pitivi-0.91-motivational-export/Vid\u00e9os/montage/Pitivi 0.91 motivational/timelapse square victoria 2.MOV",
        9218920
    ],
    [
        "extras-ges/pitivi-0.91-motivational-export/Vid\u00e9os/montage/samples Canon S95/marche dans la foule 2.MOV",
        43852296
    ],
    [
        "extras-ges/pitivi-0.91-motivational-export/projets/pitivi/gource/gource.mp4",
        565616365
    ]
]